[gd_scene load_steps=2 format=2]

[ext_resource path="res://assets/graphics/weapons/misc/scope_2.png" type="Texture" id=1]

[node name="part" type="Sprite"]
z_index = -1
texture = ExtResource( 1 )

[node name="bottom" type="Position2D" parent="."]
position = Vector2( 0, 2 )
__meta__ = {
"_gizmo_extents_": 1.0
}

[node name="front" type="Position2D" parent="."]
position = Vector2( 5, -0.5 )
__meta__ = {
"_gizmo_extents_": 1.0
}
