[gd_scene load_steps=2 format=2]

[ext_resource path="res://assets/graphics/weapons/boost/boost_7.png" type="Texture" id=1]

[node name="part" type="Sprite"]
texture = ExtResource( 1 )

[node name="left" type="Position2D" parent="."]
position = Vector2( -11, 0 )
__meta__ = {
"_gizmo_extents_": 1.0
}

[node name="right" type="Position2D" parent="."]
position = Vector2( 11, 0 )
__meta__ = {
"_gizmo_extents_": 1.0
}
