[gd_scene load_steps=2 format=2]

[ext_resource path="res://assets/graphics/weapons/barrel/firearm_s_4.png" type="Texture" id=1]

[node name="part" type="Sprite"]
texture = ExtResource( 1 )

[node name="left" type="Position2D" parent="."]
position = Vector2( -7, -1 )
__meta__ = {
"_gizmo_extents_": 1.0
}

[node name="0" type="Position2D" parent="."]
position = Vector2( 6, -2 )
__meta__ = {
"_gizmo_extents_": 1.0
}

[node name="1" type="Position2D" parent="."]
position = Vector2( 6, 1 )
__meta__ = {
"_gizmo_extents_": 1.0
}
