[gd_scene load_steps=2 format=2]

[ext_resource path="res://assets/graphics/weapons/clip/firearm_9.png" type="Texture" id=1]

[node name="part" type="Sprite"]
position = Vector2( 0, 1 )
texture = ExtResource( 1 )

[node name="top" type="Position2D" parent="."]
position = Vector2( 0, -3 )
__meta__ = {
"_gizmo_extents_": 1.0
}
