[gd_scene load_steps=5 format=2]

[ext_resource path="res://assets/graphics/weapons/clip/laser_7.png" type="Texture" id=1]
[ext_resource path="res://assets/graphics/white.png" type="Texture" id=2]
[ext_resource path="res://assets/shaders/hazeGlow.shader" type="Shader" id=3]

[sub_resource type="ShaderMaterial" id=1]
shader = ExtResource( 3 )
shader_param/waves = 10.0
shader_param/speed = 40.0
shader_param/amplitude = 0.02

[node name="part" type="Sprite"]
position = Vector2( 0, 1 )
texture = ExtResource( 1 )

[node name="top" type="Position2D" parent="."]
position = Vector2( 0, 4 )
__meta__ = {
"_gizmo_extents_": 1.0
}

[node name="indicator" type="Sprite" parent="."]
position = Vector2( 0, 1 )
scale = Vector2( 0.0078125, 0.0078125 )
z_index = -1
texture = ExtResource( 2 )
offset = Vector2( 0, -256 )

[node name="glow" type="Sprite" parent="."]
material = SubResource( 1 )
position = Vector2( 0, 0.5 )
scale = Vector2( 0.0117188, 0.0117188 )
z_index = 10
z_as_relative = false
texture = ExtResource( 2 )
offset = Vector2( 0, -128 )
