[gd_scene load_steps=2 format=2]

[ext_resource path="res://assets/graphics/weapons/base/firearm_s_1.png" type="Texture" id=1]

[node name="part" type="Sprite"]
texture = ExtResource( 1 )

[node name="right" type="Position2D" parent="."]
position = Vector2( 5, -1 )
__meta__ = {
"_gizmo_extents_": 1.0
}

[node name="clip" type="Position2D" parent="."]
position = Vector2( -1, 4 )
__meta__ = {
"_gizmo_extents_": 1.0
}

[node name="left" type="Position2D" parent="."]
position = Vector2( -5, -1 )
__meta__ = {
"_gizmo_extents_": 1.0
}

[node name="grenade" type="Position2D" parent="."]
position = Vector2( 4, 3 )
__meta__ = {
"_gizmo_extents_": 1.0
}
