[gd_scene load_steps=5 format=2]

[ext_resource path="res://assets/graphics/weapons/base/laser_2.png" type="Texture" id=1]
[ext_resource path="res://assets/graphics/white.png" type="Texture" id=2]
[ext_resource path="res://assets/shaders/hazeGlow.shader" type="Shader" id=3]

[sub_resource type="ShaderMaterial" id=1]
shader = ExtResource( 3 )
shader_param/waves = 10.0
shader_param/speed = 40.0
shader_param/amplitude = 0.02

[node name="part" type="Sprite"]
texture = ExtResource( 1 )

[node name="right" type="Position2D" parent="."]
position = Vector2( 14, -1 )
__meta__ = {
"_gizmo_extents_": 1.0
}

[node name="clip" type="Position2D" parent="."]
position = Vector2( -2, -3 )
__meta__ = {
"_gizmo_extents_": 1.0
}

[node name="grenade" type="Position2D" parent="."]
position = Vector2( 13, 4 )
__meta__ = {
"_gizmo_extents_": 1.0
}

[node name="scope" type="Position2D" parent="."]
position = Vector2( 13, -4 )
__meta__ = {
"_gizmo_extents_": 1.0
}

[node name="indicator" type="Sprite" parent="."]
position = Vector2( 8.5, 0 )
scale = Vector2( 0.00585938, 0.00390625 )
z_index = -1
texture = ExtResource( 2 )

[node name="glow" type="Sprite" parent="indicator"]
material = SubResource( 1 )
scale = Vector2( 4, 4 )
z_index = 10
z_as_relative = false
texture = ExtResource( 2 )
