[gd_scene load_steps=6 format=2]

[ext_resource path="res://assets/fonts/gohufont-bold.tres" type="DynamicFont" id=1]
[ext_resource path="res://assets/scripts/points/point.gd" type="Script" id=2]
[ext_resource path="res://assets/graphics/white.png" type="Texture" id=3]
[ext_resource path="res://assets/shaders/glow.shader" type="Shader" id=4]

[sub_resource type="ShaderMaterial" id=1]
shader = ExtResource( 4 )
shader_param/opacity = 0.2

[node name="point" type="StaticBody2D"]
collision_layer = 3
collision_mask = 3
script = ExtResource( 2 )

[node name="Label" type="Label" parent="."]
visible = false
margin_right = 40.0
margin_bottom = 14.0
custom_fonts/font = ExtResource( 1 )
__meta__ = {
"_edit_use_anchors_": false
}

[node name="glow" type="Sprite" parent="."]
material = SubResource( 1 )
scale = Vector2( 0.5, 0.5 )
z_index = 11
texture = ExtResource( 3 )
