[gd_scene load_steps=2 format=2]

[ext_resource path="res://assets/scripts/net/game_server.gd" type="Script" id=1]

[node name="Server" type="Node"]
script = ExtResource( 1 )
__meta__ = {
"_editor_description_": "Класс игрового сервера"
}
